…
    [1] "WECServer"

#### 4. Подготовьте датафрейм с расшифровкой Windows Event_ID, приведите типы данных к типу их значений.

``` r
win_url <- "https://learn.microsoft.com/en-us/windows-server/identity/ad-ds/plan/appendix-l--events-to-monitor"
win_html <- xml2::read_html(win_url)
win_df <- rvest::html_table(win_html)
win_df 
```

    [[1]]
    # A tibble: 381 × 4
       `Current Windows Event ID` `Legacy Windows Event ID` `Potential Criticality`
       <chr>                      <chr>                     <chr>                  
     1 4618                       N/A                       High                   
     2 4649                       N/A                       High                   
     3 4719                       612                       High                   
     4 4765                       N/A                       High                   
     5 4766                       N/A                       High                   
     6 4794                       N/A                       High                   
     7 4897                       801                       High                   
     8 4964                       N/A                       High                   
     9 5124                       N/A                       High                   
    10 N/A                        550                       Medium to High         
    # ℹ 371 more rows
    # ℹ 1 more variable: `Event Summary` <chr>
…
    Warning: There were 2 warnings in `mutate()`.
    The first warning was:
    ℹ In argument: `Current Windows Event ID = .Primitive("as.integer")(`Current
      Windows Event ID`)`.
    Caused by warning:
    ! в результате преобразования созданы NA
    ℹ Run `dplyr::last_dplyr_warnings()` to see the 1 remaining warning.

``` r
event_win_df 
```

    # A tibble: 381 × 4
       `Current Windows Event ID` `Legacy Windows Event ID` `Potential Criticality`
                            <int>                     <int> <chr>                  
     1                       4618                        NA High                   
     2                       4649                        NA High                   
     3                       4719                       612 High                   
     4                       4765                        NA High                   
     5                       4766                        NA High                   
     6                       4794                        NA High                   
     7                       4897                       801 High                   
     8                       4964                        NA High                   
     9                       5124                        NA High                   
    10                         NA                       550 Medium to High         
    # ℹ 371 more rows
    # ℹ 1 more variable: `Event Summary` <chr>
…
